Gazebo multi-robot simulator, version 11.9.0
Copyright (C) 2012 Open Source Robotics Foundation.
Released under the Apache 2 License.
http://gazebosim.org


(1641914486 96227835) [Msg] Waiting for master.
(1641914486 106102614) [Msg] Connected to gazebo master @ http://127.0.0.1:11345
(1641914486 106141765) [Msg] Publicized address: 172.20.0.5
(1641914486 106338762) Loaded .ini file from: "/root/.gazebo/gui.ini"
(1641914486 990383605) [Wrn] [GuiIface.cc:120] QStandardPaths: XDG_RUNTIME_DIR not set, defaulting to '/tmp/runtime-root'
(1641914488 361034089) [Err] [InsertModelWidget.cc:402] Missing model.config for model "/root/logistics/gazebo-rcll/models/carologistics/llsf_world_2013"
(1641914488 361312202) model.config file is missing in directory["/root/logistics/gazebo-rcll/models/carologistics/llsf_world_2013"]
(1641914488 361562206) [Err] [InsertModelWidget.cc:402] Missing model.config for model "/root/logistics/gazebo-rcll/models/carologistics/llsf_world_2014"
(1641914488 361834229) model.config file is missing in directory["/root/logistics/gazebo-rcll/models/carologistics/llsf_world_2014"]
(1641914488 362084089) [Err] [InsertModelWidget.cc:402] Missing model.config for model "/root/logistics/gazebo-rcll/models/carologistics/llsf_world_two_teams"
(1641914488 362390856) model.config file is missing in directory["/root/logistics/gazebo-rcll/models/carologistics/llsf_world_two_teams"]
(1641914488 366899022) [Err] [InsertModelWidget.cc:402] Missing model.config for model "/root/logistics/gazebo-rcll/models/bbu"
(1641914488 367082520) model.config file is missing in directory["/root/logistics/gazebo-rcll/models/bbu"]
(1641914488 367240496) [Err] [InsertModelWidget.cc:402] Missing model.config for model "/root/logistics/gazebo-rcll/models/carologistics"
(1641914488 367449333) model.config file is missing in directory["/root/logistics/gazebo-rcll/models/carologistics"]
(1641914488 368628194) [Err] [InsertModelWidget.cc:402] Missing model.config for model "/root/logistics/gazebo-rcll/models/logitech_c920"
(1641914488 368843150) model.config file is missing in directory["/root/logistics/gazebo-rcll/models/logitech_c920"]
(1641914488 369814998) [Err] [InsertModelWidget.cc:402] Missing model.config for model "/root/logistics/gazebo-rcll/models/pyro"
(1641914488 369996958) model.config file is missing in directory["/root/logistics/gazebo-rcll/models/pyro"]
(1641914488 435321399) [Wrn] [ModelDatabase.cc:212] Unable to connect to model database using [""//database.config]. Only locally installed models will be available.
(1641914491 280635835) No spacenav daemon found. Spacenav functionality is disabled
(1641914492 128665) [Wrn] [ModelDatabase.cc:340] Getting models from[""/]. This may take a few seconds.
(1641914492 133453892) [Wrn] [ModelDatabase.cc:212] Unable to connect to model database using [""//database.config]. Only locally installed models will be available.
(1641914492 133623736) [Wrn] [SystemPaths.cc:459] File or path does not exist [""] [model://hokuyo/meshes/hokuyo.dae]
(1641914492 133707211) [Err] [Visual.cc:2956] No mesh specified
(1641914492 133943640) [Wrn] [ModelDatabase.cc:340] Getting models from[""/]. This may take a few seconds.
(1641914492 287688402) [Wrn] [ModelDatabase.cc:212] Unable to connect to model database using [""//database.config]. Only locally installed models will be available.
(1641914492 289374430) [Wrn] [SystemPaths.cc:459] File or path does not exist [""] [model://hokuyo/meshes/hokuyo.dae]
(1641914492 289466388) [Err] [Visual.cc:2956] No mesh specified
(1641914492 289578370) [Wrn] [ModelDatabase.cc:340] Getting models from[""/]. This may take a few seconds.
(1641914492 363870956) [Wrn] [ModelDatabase.cc:212] Unable to connect to model database using [""//database.config]. Only locally installed models will be available.
(1641914492 365330978) [Wrn] [SystemPaths.cc:459] File or path does not exist [""] [model://hokuyo/meshes/hokuyo.dae]
(1641914492 376530889) [Wrn] [ModelDatabase.cc:340] Getting models from[""/]. This may take a few seconds.
(1641914492 440791069) [Wrn] [ModelDatabase.cc:212] Unable to connect to model database using [""//database.config]. Only locally installed models will be available.
(1641914492 441339732) [Wrn] [SystemPaths.cc:459] File or path does not exist [""] [model://hokuyo/meshes/hokuyo.dae]
(1641914492 441396998) [Err] [Visual.cc:2956] No mesh specified
(1641914492 441624214) [Wrn] [ModelDatabase.cc:340] Getting models from[""/]. This may take a few seconds.
(1641914492 512582348) [Wrn] [ModelDatabase.cc:212] Unable to connect to model database using [""//database.config]. Only locally installed models will be available.
(1641914492 517370323) [Wrn] [SystemPaths.cc:459] File or path does not exist [""] [model://hokuyo/meshes/hokuyo.dae]
(1641914492 517449168) [Err] [Visual.cc:2956] No mesh specified
(1641914492 517548343) [Wrn] [ModelDatabase.cc:340] Getting models from[""/]. This may take a few seconds.
(1641914492 556743155) [Wrn] [ModelDatabase.cc:212] Unable to connect to model database using [""//database.config]. Only locally installed models will be available.
(1641914492 556863840) [Wrn] [SystemPaths.cc:459] File or path does not exist [""] [model://hokuyo/meshes/hokuyo.dae]
(1641914515 536207621) [Wrn] [ModelDatabase.cc:340] Getting models from[""/]. This may take a few seconds.
(1641914515 598365781) [Wrn] [ModelDatabase.cc:212] Unable to connect to model database using [""//database.config]. Only locally installed models will be available.
(1641914515 598706928) [Wrn] [SystemPaths.cc:459] File or path does not exist [""] [model://hokuyo/meshes/hokuyo.dae]
(1641914515 598802203) [Err] [Visual.cc:2956] No mesh specified
(1641914515 599062428) [Wrn] [ModelDatabase.cc:340] Getting models from[""/]. This may take a few seconds.
(1641914515 660659807) [Wrn] [ModelDatabase.cc:212] Unable to connect to model database using [""//database.config]. Only locally installed models will be available.
(1641914515 661493665) [Wrn] [SystemPaths.cc:459] File or path does not exist [""] [model://hokuyo/meshes/hokuyo.dae]
(1641914515 661572111) [Err] [Visual.cc:2956] No mesh specified
(1641914515 661729971) [Wrn] [ModelDatabase.cc:340] Getting models from[""/]. This may take a few seconds.
(1641914515 725704310) [Wrn] [ModelDatabase.cc:212] Unable to connect to model database using [""//database.config]. Only locally installed models will be available.
(1641914515 725831939) [Wrn] [SystemPaths.cc:459] File or path does not exist [""] [model://hokuyo/meshes/hokuyo.dae]
(1641914515 726739621) [Wrn] [ModelDatabase.cc:340] Getting models from[""/]. This may take a few seconds.
(1641914515 851949411) [Wrn] [ModelDatabase.cc:212] Unable to connect to model database using [""//database.config]. Only locally installed models will be available.
(1641914515 852077551) [Wrn] [SystemPaths.cc:459] File or path does not exist [""] [model://hokuyo/meshes/hokuyo.dae]
(1641914515 852146718) [Err] [Visual.cc:2956] No mesh specified
(1641914515 852392478) [Wrn] [ModelDatabase.cc:340] Getting models from[""/]. This may take a few seconds.
(1641914515 914557372) [Wrn] [ModelDatabase.cc:212] Unable to connect to model database using [""//database.config]. Only locally installed models will be available.
(1641914515 914714312) [Wrn] [SystemPaths.cc:459] File or path does not exist [""] [model://hokuyo/meshes/hokuyo.dae]
(1641914515 915360403) [Wrn] [ModelDatabase.cc:340] Getting models from[""/]. This may take a few seconds.
(1641914515 976074151) [Wrn] [ModelDatabase.cc:212] Unable to connect to model database using [""//database.config]. Only locally installed models will be available.
(1641914515 977472681) [Wrn] [SystemPaths.cc:459] File or path does not exist [""] [model://hokuyo/meshes/hokuyo.dae]
(1641914515 977554110) [Err] [Visual.cc:2956] No mesh specified
(1641914515 977659513) [Wrn] [ModelDatabase.cc:340] Getting models from[""/]. This may take a few seconds.
(1641914516 38332956) [Wrn] [ModelDatabase.cc:212] Unable to connect to model database using [""//database.config]. Only locally installed models will be available.
(1641914516 38705653) [Wrn] [SystemPaths.cc:459] File or path does not exist [""] [model://hokuyo/meshes/hokuyo.dae]
(1641914516 39294375) [Wrn] [ModelDatabase.cc:340] Getting models from[""/]. This may take a few seconds.
(1641914516 100247291) [Wrn] [ModelDatabase.cc:212] Unable to connect to model database using [""//database.config]. Only locally installed models will be available.
(1641914516 100399711) [Wrn] [SystemPaths.cc:459] File or path does not exist [""] [model://hokuyo/meshes/hokuyo.dae]
(1641914516 100479693) [Err] [Visual.cc:2956] No mesh specified
(1641914516 100593731) [Wrn] [ModelDatabase.cc:340] Getting models from[""/]. This may take a few seconds.
(1641914516 162582710) [Wrn] [ModelDatabase.cc:212] Unable to connect to model database using [""//database.config]. Only locally installed models will be available.
(1641914516 165163154) [Wrn] [SystemPaths.cc:459] File or path does not exist [""] [model://hokuyo/meshes/hokuyo.dae]
(1641914552 13207913) [Wrn] [Publisher.cc:136] Queue limit reached for topic /gazebo/LLSF/user_camera/pose, deleting message. This warning is printed only once.
